…
Using data from the Open APC initiative, we finally checked whether institutions have financed hybrid open access articles in reverse-flipped journals. We found evidence for institutional sponsorship for three individual articles in reverse-flip journals, and as part of a transformative agreement "Springer Compact" offered by Springer Nature to individual institutions and countries. Table summaries the total number of articles in reverse-flip journal that were made openly available under "Springer Compact" agreements, as well as its proportion per transformation contract. Although the proportion these articles is marginally, findings suggest that mechanisms were missing that would have helped institutions to prevent funding of open access publication in reverse-flipped journals.


hybrid_type             publisher.x       Sponsor           OA Articles in Reverse Flip Journals   All OA Articles   Proportion (in%)
----------------------  ----------------  ---------------  -------------------------------------  ----------------  -----------------
Open APC (Offsetting)   Springer Nature   United Kingdom                                      20             10289               0.19
Open APC (Offsetting)   Springer Nature   Sweden                                              10              3285               0.30
Open APC (Offsetting)   Springer Nature   Austria                                              5              1721               0.29
Open APC (Offsetting)   Springer Nature   Germany                                              3               621               0.48
Open APC (Offsetting)   Springer Nature   Netherlands                                          2              6085               0.03



```
#> # A tibble: 21 x 4
#>    journal_title                                     jn_volume   hoa  prop
#>    <chr>                                                 <int> <int> <dbl>
#>  1 3 Biotech                                               895    60  6.7 
#>  2 Acta Geophysica                                         232    46 19.8 
#>  3 Annals of Nuclear Medicine                              273    53 19.4 
#>  4 Applied Nanoscience                                     292    11  3.77
#>  5 Arabian Journal for Science and Engineering            2124    12  0.56
#>  6 Brazilian Journal of Physics                             85     1  1.18
#>  7 Cancer Treatment Communications                          34     1  2.94
#>  8 Computational and Applied Mathematics                   462    11  2.38
#>  9 Gold Bulletin                                            41     2  4.88
#> 10 Integrating Materials and Manufacturing Innovati…        41     4  9.76
#> # ... with 11 more rows
```
